STATUS: PSpice Schematics to Capture translator (17.2.0.d001)
STATUS:  
STATUS: Translator started at Wednesday, September 28, 2016 21:36:17
STATUS: C:\Cadence\SPB_17.2\tools\bin\sch2cap -f "C:\Users\N\Documents\Orcad libraries\Analog devices ad623\ad623_new.lib" -o "C:\Users\N\Documents\Orcad libraries\Analog devices ad623\ad623_new.olb" -i C:\Cadence\SPB_Data\.\cdssetup\OrCAD_PSpice/17.2.0/PSpice.ini
INFO(ORSCH-1029): Using existing library 'C:\Cadence\SPB_17.2\tools\Capture\Library\PSpice\modeled.etc'.
INFO(ORSCH-1029): Using existing library 'C:\Users\N\Documents\Orcad libraries\Analog devices ad623\ad623_new.olb'.
STATUS: Translator stopped at Wednesday, September 28, 2016 21:36:18
STATUS: 0 Error messages, 0 Warning messages
