(---------------------------------------------------------------------)
(                                                                     )
(    CREATE SYMBOL                                                    )
(                                                                     )
(    Drawing          : trim_ACP_VR10.dra                             )
(    Software Version : 17.2S005                                      )
(    Date/Time        : Fri Dec 09 18:18:41 2016                      )
(                                                                     )
(---------------------------------------------------------------------)


Create Symbol of type: PACKAGE
    Directory = C:/Users/N/Documents/NS orcad footprints/NS footprints/Footprints
    Name      = trim_acp_vr10.psm
    User      = N
    Machine   = PSYLAPTOP2


Create symbol started.
 

Create symbol completed.

